ID,Label,Species,Strain,Clade,Country,Source,Contigs,Size,N50,L50,G+C%,tmRNA,rRNA,CDS,tRNA
L01,L01_L_alexanderi,L_alexanderi,L60,P1,China,Human,63,4223089,156869,10,40,2,1,4,3996,37
L02,L02_L_alstonii,L_alstonii,79601,P1,China,Amphibian ,125,4436408,68494,17,42,48,1,7,4028,37
L03,L03_L_borgpetersenii,L_borgpetersenii,L550,P1,Australia,Human,2,3931782,3614446,1,40,23,1,7,3606,38
L04,L04_L_interrogans,L_interrogans ,56601,P1,China,Human,2,4698134,4338762,1,35,02,1,5,3777,37
L05,L05_L_kirschneri,L_kirschneri,200702274,P1,France,Human,22,4317431,359987,5,35,89,1,4,3518,38
L06,L06_L_mayottensis,L_mayottensis ,200901116,P1,Mayotte,Human,67,4135276,170450,7,39,49,1,3,3654,37
L07,L07_L_noguchii,L_noguchii ,CZ 214T,P1,Panama,Other mammal,35,4710917,280299,6,35,54,1,5,4050,38
L08,L08_L_santarosai,L_santarosai ,LT821,P1,Panama,Rat,2,3983611,3659905,1,41,82,1,7,3600,37
L09,L09_L_weilii,L_weilii ,LT2116,P1,Australia,Human,83,4323312,141068,10,40,46,1,8,4382,38
L10,L10_L_kmetyi,L_kmetyi ,Bejo-Iso9,P1,Malaysia,Environment,4,4418431,3808637,1,44,82,1,6,3993,38
L11,L11_L_ellisii,L_ellisii,AT17-C-A5,P1,Malaysia,Environment,589,4314057,14342,94,47,8,1,3,4106,39
L12,L12_L_barantonii,L_barantonii,FH4-C-A1,P1,New Caledonia,Environment,17,4392226,347630,4,43,96,1,4,4005,37
L13,L13_L_adleri,L_adleri,FH2-B-C1,P1,New Caledonia,Environment,51,4388198,202560,8,43,82,0,3,3951,32
L14,L14_L_dzianensis,L_dzianensis,201601115,P1,Mayotte,Environment,27,4408471,436541,3,45,46,1,4,4000,37
L15,L15_L_gomenensis,L_gomenensis,201800299,P1,New Caledonia,Environment,72,4276968,211316,8,46,12,1,4,3878,37
L16,L16_L_putramalaysiae,L_putramalaysiae,SCW20,P1,Malaysia,Environment,82,4985433,271588,7,42,55,1,4,4639,39
L17,L17_L_tipperaryensis,L_tipperaryensis,GWTS,P1,Ireland,Other mammal,2,4591888,4105414,1,42,42,1,6,4139,37
L18,L18_L_broomii,L_broomii,5399,P2,Denmark,Human,12,4395904,2457338,1,42,99,1,7,3969,38
L19,L19_L_fainei,L_fainei ,BUT6,P2,Australia,Pig,13,4287324,579278,2,43,53,1,5,3848,38
L20,L20_L_inadai ,L_inadai ,10,P2,USA,Human,26,4457485,810442,3,44,61,1,7,3982,39
L21,L21_L_licerasiae,L_licerasiae ,VAR010 ,P2,Peru,Human,13,4210826,553148,2,41,13,1,5,3865,38
L22,L22_L_wolffii,L_wolffii ,Khorat-H2 ,P2,Thailand,Human,23,4400835,916783,3,45,58,1,5,4036,40
L23,L23_L_venezuelensis,L_venezuelensis,CLM-R50,P2,Venezuela,Human,21,4308115,896129,2,39,19,1,4,3995,36
L24,L24_L_haakeii,L_haakeii,AT17-C-A2,P2,New Caledonia,Soil,37,4191631,324807,4,39,81,1,4,3814,36
L25,L25_L_hartskeerlii,L_hartskeerlii,MCA1-C-A1,P2,New Caledonia,Soil,31,4048089,406654,4,40,47,1,4,3694,40
L26,L26_L_neocaledonica,L_neocaledonica,ES4-C-A1,P2,New Caledonia,Soil,38,4213808,452736,5,40,17,1,4,3894,37
L27,L27_L_perolatii,L_perolatii,FH1-B-B1,P2,New Caledonia,Soil,49,3985918,332586,4,42,36,1,4,3597,38
L28,L28_L_saintgironsiae,L_saintgironsiae,FH4-C-A2 ,P2,Malaysia,Environment,42,4083319,551160,3,39,11,1,4,3742,36
L29,L29_L_andrefontaineae,L_andrefontaineae,201800301,P2,New Caledonia,Environment,26,4280350,460372,4,39,94,1,4,3932,39
L30,L30_L_dzoumogneensis,L_dzoumogneensis,201601113,P2,Mayotte,Environment,28,4118320,585855,3,40,99,1,4,3771,36
L31,L31_L_fletcheri,L_fletcheri ,SCW15,P2,Malaysia,Environment,14,3733663,474571,2,47,35,1,4,3391,39
L32,L32_L_fluminis,L_fluminis,SCS5,P2,Malaysia,Environment,18,3746420,325090,4,47,7,1,4,3383,39
L33,L33_L_johnsonii,L_johnsonii,E8,P2,Japan,Environment,20,4063992,508309,2,41,26,1,4,3752,39
L34,L34_L_koniamboensis,L_koniamboensis,201800265,P2,New Caledonia,Environment,12,4319728,868904,2,38,97,1,4,3966,35
L35,L35_L_langatensis,L_langatensis,SCW18,P2,Malaysia,Environment,11,4089386,548229,4,44,79,1,4,3741,40
L36,L36_L_sarikeiensis,L_sarikeiensis,201702455,P2,Malaysia,Environment,44,4373171,278101,5,40,27,1,4,3996,39
L37,L37_L_selangorensis,L_selangorensis,SCW17,P2,Malaysia,Environment,27,4189721,523715,4,39,99,1,4,3838,35
L38,L38_L_semungkikensis,L_semungkikensis,SSS9,P2,Malaysia,Environment,22,3942365,832702,2,42,76,1,4,3582,37
L39,L39_L_biflexa,L_biflexa,Patoc 1 (Patoc),S1-2,Italy,Environment,3,3951448,3599677,1,38,89,1,6,3687,35
L40,L40_L_yanagawae ,L_yanagawae ,ATCC700523,S1-2,Brazil,Environment,47,4056240,330086,3,38,23,1,6,3837,35
L41,L41_L_levettii,L_levettii,MCA2-B-A1,S1-2,New Caledonia,Environment,14,3875926,772998,2,37,61,1,6,3595,35
L42,L42_L_bouyouniensis,L_bouyouniensis,201601297,S1-2,Mayotte,Environment,26,4099581,942431,2,37,06,1,5,3826,37
L43,L43_L_ellinghausenii,L_ellinghausenii,E18,S1-2,Japan,Environment,27,4193578,397404,2,37,35,1,4,3924,35
L44,L44_L_jelokensis,L_jelokensis,201702419,S1-2,Malaysia,Environment,42,4123596,800878,2,38,9,1,5,3820,35
L45,L45_L_kemamanensis,L_kemamanensis,201702454,S1-2,Malaysia,Environment,49,3768471,224302,6,38,9,1,4,3508,35
L46,L46_L_meyeri ,L_meyeri ,Went5,S1-1,Canada,Unknown,7,4188061,2478877,1,38,03,1,5,3900,35
L47,L47_L_terpstrae ,L_terpstrae ,ATCC700639,S1-1,China,Environment,23,4092188,372285,3,38,21,1,7,3842,35
L48,L48_L_vanthielii,L_vanthielii,ATCC700522,S1-1,Netherlands,Environment,89,4232327,164554,9,38,9,1,7,4049,37
L49,L49_L_wolbachii ,L_wolbachii ,CDC,S1-1,USA,Environment,25,4081981,2540234,1,39,15,1,8,3825,35
L50,L50_L_brenneri,L_brenneri,JW2-C-A2,S1-1,New Caledonia,Environment,33,4113151,489086,4,38,34,1,4,3847,36
L51,L51_L_harrisiae,L_harrisiae,FH2-B-A1,S1-1,New Caledonia,Environment,17,3946761,2088660,1,37,86,1,5,3654,36
L52,L52_L_bandrabouensis,L_bandrabouensis,201601298,S1-1,Mayotte,Environment,18,4027080,2180649,1,37,88,1,5,3793,35
L53,L53_L_bourretii,L_bourretii,201800280,S1-1,New Caledonia,Environment,29,4234564,708835,2,38,24,1,5,3935,35
L54,L54_L_congkakensis,L_congkakensis,201702421,S1-1,Malaysia,Environment,24,4003841,682760,3,38,23,1,4,3674,36
L55,L55_L_kanakyensis,L_kanakyensis,201800292,S1-1,New Caledonia,Environment,26,4137313,1010756,2,38,5,1,4,3878,35
L56,L56_L_montravelensis,L_montravelensis,201800279,S1-1,New Caledonia,Environment,35,4082263,1385913,2,37,4,1,5,3792,35
L57,L57_L_mtsangambouensis,L_mtsangambouensis,201601298,S1-1,Mayotte,Environment,17,4083444,1411831,2,38,2,1,4,3791,35
L58,L58_L_noumeaensis,L_noumeaensis,201800287,S1-1,New Caledonia,Environment,39,4107975,616770,2,38,29,1,4,3823,35
L59,L59_L_perdikensis,L_perdikensis,201702692,S1-1,Malaysia,Environment,19,4001187,832751,2,38,5,1,4,3694,35
L60,L60_L_idonii,L_idonii ,201300427,S2,Japan,Environment,78,4086283,195150,7,41,15,1,4,3762,35
L61,L61_L_ilyithenensis,L_ilyithenensis,201400974,S2,Algeria,Environment,63,4207523,266913,5,40,54,1,4,3908,35
L62,L62_L_kobayashii,L_kobayashii,E30,S2,Japan,Environment,25,4294786,382600,4,40,68,1,4,3925,37
L63,L63_L_ognonensis,L_ognonensis,201702476,S2,France,Environment,60,3987421,305521,5,39,66,1,4,3698,35
L64,L64_L_ryugenii,L_ryugenii,YH101,S2,Japan,Environment,24,3951395,715814,3,39,92,1,4,3725,35
